ST_NAME,PC_NAME,ST_CODE,PC_CODE,Res,PC_MP,PC_PARTY
AN,Andaman & Nicobar Islands,U01,1,,Shri Bishnu Pada Ray,BJP
AP,Kurnool,S01,5,,Smt. Renuka Butta,YSR Congress Party
AP,Guntur,S01,18,,Shri Jayadev Galla,TDP
AP,Vishakhapatnam,S01,17,,Dr. Hari Babu Kambhapati,BJP
AP,Vijayawada,S01,6,,Shri Srinivas Kesineni,TDP
AP,Araku,S01,22,,Smt. Geetha Kothapalli,YSR Congress Party
AP,Rajahmundry,S01,14,,Shri Murali Mohan Maganti,TDP
AP,Eluru,S01,10,,Shri Venkateswara Rao (Babu) Magantti,TDP
AP,Bapatla,S01,19,,Shri Sriram Malyadri,TDP
AP,Hindupur,S01,27,,Shri Kristappa Nimmala,TDP
AP,Amalapuram,S01,8,,Dr. Ravindra Babu Pandula,TDP
AP,Vizianagaram,S01,2,,Shri Ashok Gajapathi Raju Pusapati,TDP
AP,Narsapuram,S01,25,,Shri Gokaraju Ganga Raju,BJP
AP,Srikakulam,S01,13,,Shri Kinjarapu Ram Mohan Naidu,TDP
AP,Machilipatnam,S01,26,,Shri Konakalla Narayana Rao,TDP
AP,Narasaraopet,S01,12,,Shri Rayapati Sambasiva Rao,TDP
AP,Anakapalle,S01,24,,Shri Muthamsetti Srinivasa Rao (Avanthi),TDP
AP,Anantapur,S01,31,,Shri J.C. Divakar Reddy,TDP
AP,Nellore,S01,28,,Shri Mekapati Rajamohan Reddy,YSR Congress Party
AP,Rajampet,S01,30,,Shri Midhun Reddy,YSR Congress Party
AP,Nandyal,S01,33,,Shri S.P.Y. Reddy,YSR Congress Party
AP,Kadapa,S01,32,,Shri Y. S. Avinash Reddy,YSR Congress Party
AP,Chittoor,S01,35,,Dr. Naramalli Sivaprasad,TDP
AP,Ongole,S01,3,,Shri Yerram Venkata Subba Reddy,YSR Congress Party
AP,Kakinada,S01,4,,Shri Narasimham Thota,TDP
AP,Tirupati,S01,20,,Dr. Vara Prasadarao Velagapalli,YSR Congress Party
AR,Arunachal East,S02,1,,Shri Ninong Ering,INC
AR,Arunachal West,S02,2,,Shri Kiren Rijiju,BJP
AS,Dhubri,S03,14,,Maulana Badruddin Ajmal,AIUDF
AS,Barpeta,S03,13,,Shri Sirajuddin Ajmal,AIUDF
AS,Lakhimpur,S03,12,,Shri Radheshyam Biswas,AIUDF
AS,Karimganj,S03,9,,Smt. Bijoya Chakravarty,BJP
AS,Gauhati,S03,11,,Shri Ramen Deka,BJP
AS,Silchar,S03,8,YES,Km. Sushmita Dev,INC
AS,Autonomous District,S03,10,,Shri Biren Singh Engti,INC
AS,Kaliabor,S03,3,,Shri Gaurav Gogoi,INC
AS,Nawgong,S03,4,,Shri Rajen Gohain,BJP
AS,Kokrajhar,S03,1,,Shri Naba (Hira) Kumar Sarania,Ind.
AS,Tezpur,S03,2,,Shri Ram Prasad Sarmah,BJP
AS,Jorhat,S03,5,,Shri Kamakhya Prasad Tasa,BJP
AS,Dibrugarh,S03,7,,Shri Rameswar Teli,BJP
BR,Karihar,S04,15,,Shri Tariq Anwar,NCP
BR,Darbhanga,S04,1,,Shri Kirti (JHA) Azad,BJP
BR,Jhanjharpur,S04,9,,Shri Birendra Kumar Chaudhary,BJP
BR,Buxar,S04,17,,Shri Ashwini Kumar Choubey,BJP
BR,Sheohar,S04,18,,Smt. Rama Devi,BJP
BR,Munger,S04,16,,Smt. Veena Devi,LJSP
BR,Valmiki Nagar,S04,7,,Shri Satish Chandra Dubey,BJP
BR,Paschim Champaran,S04,8,,Dr. Sanjay Jaiswal,BJP
BR,Khangaria,S04,2,,Choudhary Mehboob Ali Kaiser,LJSP
BR,Jahanabad,S04,6,,Dr. Arun Kumar,RLSP
BR,Nalanda,S04,10,,Shri Kaushalendra Kumar,JD(U)
BR,Purnia,S04,14,,Shri Santosh Kumar,JD(U)
BR,Bhagalpur,S04,12,,Shri Shailesh (Bulo Mandal) Kumar,RJD
BR,Karakat,S04,19,,Shri Upendra Kushwaha,RLSP
BR,Gaya,S04,13,,Shri Hari Manjhi,BJP
BR,Kishanganj,S04,24,,Shri Asrarul Haque Mohammad,INC
BR,Muzaffarpur,S04,32,,Shri Ajay Nishad,BJP
BR,Sasaram,S04,34,,Shri Chhedi Paswan,BJP
BR,Jamui,S04,39,,Shri Chirag Paswan,LJSP
BR,Hajipur,S04,27,,Shri Ram Vilas Paswan,LJSP
BR,Samastipur,S04,29,,Shri Ramchandra Paswan,LJSP
BR,Ujiarpur,S04,11,,Shri Nityanand Rai,BJP
BR,Gopalganj,S04,23,,Shri Janak Ram,BJP
BR,Supaul,S04,25,,Smt. Ranjeet Ranjan,INC
BR,Madhepura,S04,31,,Shri Rajesh Ranjan (Pappu Yadav),RJD
BR,Saran,S04,33,,Shri Rajiv Pratap Rudy,BJP
BR,Sitamarhi,S04,30,,Shri Ram Kumar Sharma,RLSP
BR,Maharajganj,S04,26,,Shri Janardan Singh,BJP
BR,Begusarai,S04,28,,Dr. Bhola Singh,BJP
BR,Nawada,S04,3,,Shri Giriraj Singh,BJP
BR,Purvi Champaran,S04,4,,Shri Radha Mohan Singh,BJP
BR,Arrah,S04,5,,Shri Raj Kumar Singh,BJP
BR,Vaishali,S04,22,,Shri Rama Kishore Singh,LJSP
BR,Aurangabad,S04,21,,Shri Sushil Kumar Singh,BJP
BR,Patna Sahib,S04,35,,Shri Shatrughan Prasad Sinha,BJP
BR,Madhubani,S04,20,,Shri Hukmdev Narayan Yadav,BJP
BR,Banka,S04,40,,Shri Jay Prakash Narayan Yadav,RJD
BR,Siwan,S04,37,,Shri Om Prakash Yadav,BJP
BR,Pataliputra,S04,38,,Shri Ram Kripal Yadav,BJP
CG,Raipur,S26,3,,Shri Ramesh Bais,BJP
CG,Bastar,S26,8,,Shri Dinesh Kashyap,BJP
CG,Korba,S26,1,,Dr. Banshilal Mahto,BJP
CG,Sugurja,S26,5,,Shri Kamalbhan Singh Marabi,BJP
CG,Janjgir,S26,6,,Smt. Kamla Devi Patle,BJP
CG,Mahasamund,S26,7,,Shri Chandu Lal Sahu,BJP
CG,Bilaspur,S26,9,,Shri Lakhan Lal Sahu,BJP
CG,Durg,S26,2,,Shri Tamradhwaj Sahu,INC
CG,Raigarh,S26,11,,Shri Vishnu Deo Sai,BJP
CG,Rajnandgaon,S26,10,,Shri Abhishek Singh,BJP
CG,Kanker,S26,4,,Shri Vikram Usendi,BJP
CH,Chandigarh,U02,1,,Smt. Kirron Anupam Kher,BJP
DL,South Delhi,U04,1,,Shri Ramesh Bidhuri,BJP
DL,East Delhi,U05,6,,Shri Maheish Girri,BJP
DL,Chandni Chowk,U05,5,,Dr. Harsh Vardhan,BJP
DL,New Delhi,U05,1,,Smt. Meenakashi Lekhi,BJP
DL,North West Delhi,U05,2,,Dr. Udit Raj,BJP
DL,West Delhi,U05,7,,Shri Parvesh Sahib Singh,BJP
DL,North East Delhi,U05,3,,Shri Manoj Kumar Tiwari,BJP
DN,Dadra & Nagar Haveli,U03,1,," Shri Natubhai Gomanbhai Patel
",BJP
GA,North Goa,S05,2,,Shri Shripad Yesso Naik,BJP
GA,South Goa,S05,1,,Advocate (Shri) Narendra Keshav Sawaikar,BJP
GJ,Gandhinagar,S06,23,,Shri Lal Krishna Advani,BJP
GJ,Dahod,S06,13,,Shri Jaswantsinh Sumanbhai Bhabhor,BJP
GJ,Vadodara,S06,24,,Smt. Ranjanben Dhananjay Bhatt,BJP
GJ,Banaskantha,S06,17,,Shri Haribhai Parthibhai Chaudhary,BJP
GJ,Kheda,S06,8,,Shri Devusinh Jesingbhai Chauhan,BJP
GJ,Panchmahal,S06,12,,Shri Prabhatsinh Pratapsinh Chauhan,BJP
GJ,Kachchh,S06,5,,Shri Vinod Chavda,BJP
GJ,Junagadh,S06,2,,Shri Rajeshbhai Naranbhai Chudasama,BJP
GJ,Surendranagar,S06,3,,Shri Devajibhai Govindbhai Fatepara,BJP
GJ,Surat,S06,18,,Smt. Darshana Vikram Jardosh,BJP
GJ,Amreli,S06,19,,Shri Naranbhai Bhikhabhai Kacchadiya,BJP
GJ,Rajkot,S06,20,,Shri Mohanbhai Kalyanji Kundariya,BJP
GJ,Jamnagar,S06,16,,Smt. Poonamben Hematbhai Maadam,BJP
GJ,Anand,S06,14,,Shri Dilip M. Patel,BJP
GJ,Mehsana,S06,7,,Smt. Jayshreeben Patel,BJP
GJ,Valsad,S06,10,,Dr. K. C. Patel,BJP
GJ,Navsari,S06,9,,Shri C. R. Patil,BJP
GJ,Porbandar,S06,25,,Shri Vitthalbhai Hansrajbhai Radadiya,BJP
GJ,Sabarkantha,S06,22,,Shri Dipsinh Shankarsinh Rathod,BJP
GJ,Chotta Udaipur,S06,21,,Shri Ramsinh Pataliyabhai Rathwa,BJP
GJ,Ahmedabad EAST,S06,11,,Shri Paresh Rawal,BJP
GJ,Bhavnagar,S06,26,,Dr. Bharati Dhirubhai Shyal,BJP
GJ,Ahemadabad West SC,S06,6,,Dr. (Prof.) Kirit Premjibhai Solanki,BJP
GJ,Patan,S06,4,,Shri Liladharbhai Khodaji Vaghela,BJP
GJ,Bharuch,S06,15,,Shri Mansukhbhai Dhanjibhai Vasava,BJP
HP,Shimla,S08,3,,Shri Virender Kashyap,BJP
HP,Kangra,S08,1,,Shri Shanta Kumar,BJP
HP,Mandi,S08,4,,Shri Ram Swaroop Sharma,BJP
HP,Hamirpur,S08,2,,Shri Anurag Singh Thakur,BJP
HR,Karnal,S07,1,,Shri Ashwini Kumar,BJP
HR,Hisar,S07,2,,Shri Dushyant Chautala,INLD
HR,Bhiwani-Mahendragarh,S07,3,,Shri Dharambir Singh,BJP
HR,Faridabad,S07,5,,Shri Krishan Pal Gurjar,BJP
HR,Rohtak,S07,6,,Shri Deepender Singh Hooda,INC
HR,Ambala,S07,4,,Shri Rattan Lal Kataria,BJP
HR,Sonipat,S07,7,,Shri Ramesh Chander Kaushik,BJP
HR,Gurgaon,S07,8,,Rao Inderjit SIngh,BJP
HR,Sirsa,S07,9,,Shri Charanjeet Singh Rori,INLD
HR,Kurukshetra,S07,10,,Shri Raj Kumar Saini,BJP
JH,Lohardaga,S27,9,,Shri Sudarshan Bhaga t,BJP
JH,Ranchi,S27,10,,Shri Ram Tahal Choudhary,BJP
JH,Godda,S27,1,,Shri Nishikant Dubey,BJP
JH,Singhbum,S27,2,,Shri Laxman Giluwa,BJP
JH,Rajmahal,S27,3,,Shri Vijay Kumar Hansdak,JMM
JH,Jamshedpur,S27,13,,Shri Bidyut Baran Mahato,BJP
JH,Khunti,S27,14,,Shri Kariya Munda,BJP
JH,Giridh,S27,7,,Shri Ravindra Kumar Pandey,BJP
JH,Palamu,S27,5,,Shri Vishnu Dayal Ram,BJP
JH,Kodarma,S27,12,,Dr. Ravindra Kumar Ray,BJP
JH,Dhanbad,S27,11,,Shri Pashupati Nath Singh,BJP
JH,Chatra,S27,4,,Shri Sunil Kumar Singh,BJP
JH,Hazaribagh,S27,8,,Shri Jayant Sinha,BJP
JH,Dumka,S27,6,,Shri Shibu Soren,JMM
JK,Baramulla,S09,4,,Shri Muzaffar Hussain Baig,J&KPDP
JK,Ladakh,S09,6,,Shri Thupstan Chhewang,BJP
JK,Srinagar,S09,2,,Dr. Farooq Abdullah,NC
JK,Jammu,S09,3,,Shri Jugal Kishore Sharma,BJP
JK,Udhampur,S09,1,,Dr. Jitendra Singh,BJP
KA,Bangalore South,S10,5,,Shri Ananth Kumar,BJP
KA,Belgaum,S10,4,,Shri Suresh Chanabasappa angadi,BJP
KA,Chitradurga,S10,1,,Shri B.N. Chandrappa,INC
KA,Hassan,S10,6,,Shri H D Devegowda,JD(S)
KA,Chamrajanagar,S10,8,,Shri R. Dhruvanaryana,INC
KA,Bagalkot,S10,10,,Shri Parvatagouda Chandanagouda Gaddigoudar,BJP
KA,Bangalore North,S10,13,,Shri D.V. Sadananda Gowda,BJP
KA,Uttara Kannada,S10,27,,Shri Anantkumar Hegde,BJP
KA,Chikkodi,S10,15,,Shri Prakash Babanna Hukkeri,INC
KA,Bijapur,S10,19,,Shri Ramesh Chandappa Jigajinagi,BJP
KA,Dharwad,S10,28,,Shri Pralhad Venkatesh Joshi,BJP
KA,Koppal,S10,23,,Shri Sanganna Amarappa Karadi,BJP
KA,Udupi Chikmagalur,S10,11,,Km. Shobha Karandlaje,BJP
KA,Dakshina Kannada,S10,24,,Shri Nalin Kumar Kateel,BJP
KA,Gulbarga,S10,17,,Shri Mallikarjun Kharge,INC
KA,Bidar,S10,21,,Shri Bhagwanth Khuba,BJP
KA,Bangalore Central,S10,22,,Shri P. C. Mohan,BJP
KA,Chikballapur,S10,20,,Dr. M. Veerappa Molly,INC
KA,Tumkur,S10,9,,Shri S.P. Muddahanumegowda,INC
KA,Kolar,S10,18,,Dr. K.H. Muniyappa,INC
KA,Raichur,S10,7,,Shri B.V. Naik,INC
KA,Mandya,S10,12,,Shri C.S. Puttaraju,JD(S)
KA,Devanagere,S10,14,,Shri Gowdar Mallikarjunappa Siddeshwara,BJP
KA,Mysore,S10,16,,Shri Prathap Simha,BJP
KA,Bellary,S10,2,,Shri B. S. Sreeramulu,BJP
KA,Bangalore Rural,S10,26,,Shri Doddaalahalli Kempegowda Suresh,INC
KA,Haveri,S10,25,,Shri Shivkumar Chanabasappa Udasi,BJP
KA,Shimoga,S10,3,,Shri B. S. Yeddyurappa,BJP
KL,Pathanamthitta,S11,6,,Shri Anto Antony,INC
KL,Ponnani,S11,17,,Shri E. T. Mohammed Basheer,IUML
KL,Alathur,S11,16,,Dr. Parayamparambil Kuttappan Biju,CPI(M)
KL,Idukki,S11,20,,Shri (Adv.) Joice George,Ind.
KL,,S11,8,,Prof. Richard Hay,BJP
KL,Chalakudy,S11,10,,Shri Innocent,Ind.
KL,Thrissur,S11,9,,Shri C. N. Jayadevan,CPI
KL,Kasaragoa,S11,1,,Shri P. Karunakaran,CPI(M)
KL,Mavelikkara,S11,19,,Shri Suresh Kodikunnil,INC
KL,Kottayam,S11,3,,Shri Jose K. Mani,KC(M)
KL,Vadakara,S11,5,,Shri Ramachandran Mullappally,INC
KL,Malapurram,S11,2,,Shri Kunhalikutty P.K.,IUML
KL,Kollam,S11,11,,Shri N.K. Premachandran,RSP
KL,Kozhikode,S11,13,,Shri M. K. Raghavan,INC
KL,Palakkad,S11,15,,Shri M. B. Rajesh,CPI(M)
KL,Attingal,S11,14,,Dr. Anirudhan Sampath,CPI(M)
KL,Wayanad,S11,18,,Shri M. I. Shanavas,INC
KL,Kannur,S11,12,,Smt. P.K. Sreemathi Teacher,CPI(M)
KL,Thiruvanthampuram,S11,4,,Dr. Shashi Tharoor,INC
KL,Ernakulam,S11,7,,Prof. Kuruppassery Varkey Thomas,INC
MN,Inner Manipur,S14,1,,Ashish,
MN,Outer Manipur,S14,2,,Ashish,
MP,Bhind,S12,2,,Ashish,
MP,Balaghat,S12,15,,Ashish,
MP,Hoshangabad,S12,17,,Ashish,
MP,Dhar,S12,25,,Ashish,
MP,Indore,S12,26,,Ashish,
MP,Gwalior,S12,3,,Ashish,
MP,Sidhi,S12,11,,Ashish,
MP,Rajgarh,S12,20,,Ashish,
MP,Sagar,S12,5,,Ashish,
MP,Damoh,S12,7,,Ashish,
MP,Shahdol,S12,12,,Ashish,
MP,Dewas,S12,21,,Ashish,
MP,Ujjain,S12,22,,Ashish,
MP,Bhopal,S12,19,,Ashish,
MP,Vidisha,S12,18,,Ashish,
MP,Ratlam,S12,24,,Ashish,
MP,Rewa,S12,10,,Ashish,
MP,Satna,S12,9,,Ashish,
MP,Mandsaur,S12,23,,Ashish,
MP,Guna,S12,4,,Ashish,
MP,Chhindwara,S12,16,,Ashish,
MP,Betul,S12,29,,Ashish,
MP,Khargone,S12,27,,Ashish,
MP,Jabalpur,S12,13,,Ashish,
MP,Mandla,S12,14,,Ashish,
MP,Morena,S12,1,,Ashish,
MP,Tikamgarh,S12,6,,Ashish,
MP,Khajuraho,S12,8,,Ashish,
MP,Khandwa,S12,28,,Ashish,
ML,Tura,S15,2,,Ashish,
ML,Shillong,S15,1,,Ashish,
MH,Buldana,S13,5,,Ashish,
MH,Madha,S13,43,,Ashish,
MH,Satara,S13,45,,Ashish,
MH,Jalgaon,S13,3,,Ashish,
MH,Akola,S13,6,,Ashish,
MH,Sangli,S13,44,,Ashish,
MH,Solapur,S13,42,,Ashish,
MH,Amravati,S13,7,,Ashish,
MH,Ramtek,S13,9,,Ashish,
MH,Nandurbar,S13,1,,Ashish,
MH,Bhandara - Gondiya,S13,11,,Ashish,
MH,Wardha,S13,8,,Ashish,
MH,Shirur,S13,36,,Ashish,
MH,Beed,S13,39,,Ashish,
MH,Maval,S13,33,,Ashish,
MH,Parbhani,S13,17,,Ashish,
MH,Raigarh,S13,32,,Ashish,
MH,Osmanabad,S13,40,,Ashish,
MH,Hatkanangle,S13,48,,Ashish,
MH,Dhule,S13,2,,Ashish,
MH,Garhchiroli - Chimur,S13,12,,Ashish,
MH,Raver,S13,4,,Ashish,
MH,Biwandi,S13,23,,Ashish,
MH,Dindori,S13,20,,Ashish,
MH,Jalna,S13,18,,Ashish,
MH,Aurangabad,S13,19,,Ashish,
MH,Chandrapur,S13,13,,Ashish,
MH,Nashik,S13,21,,Ashish,
MH,Shirdi,S13,38,,Ashish,
MH,Hingoli,S13,15,,Ashish,
MH,Ahmadnagar,S13,37,,Ashish,
MH,Palghar,S13,22,,Ashish,
MH,Latur,S13,41,,Ashish,
MH,Baramati,S13,35,,Ashish,
MH,Ratnagiri - Sindhudurg,S13,46,,Ashish,
MH,Kolhapur,S13,47,,Ashish,
MH,Thane,S13,25,,Ashish,
MH,Mumbai North,S13,26,,Ashish,
MH,Mumbai North-WeNC,S13,27,,Ashish,
MH,Mumbai North-EaNC,S13,28,,Ashish,
MH,Mumbai North-Central,S13,29,,Ashish,
MH,Mumbai South,S13,31,,Ashish,
MH,Mumbai South-Central,S13,30,,Ashish,
MH,Kalyan,S13,24,,Ashish,
MH,Pune,S13,34,,Ashish,
MH,Nanded,S13,16,,Ashish,
MH,Yavatmal - Washim,S13,14,,Ashish,
MH,Nagpur,S13,10,,Ashish,
MZ,Mizoram,S16,1,,Ashish,
NL,Nagaland,S17,1,,Ashish,
OD,Bhadrak,S18,7,,Ashish,
OD,Jajapur,S18,8,,Ashish,
OD,Sambalpur,S18,3,,Ashish,
OD,Baleshwar,S18,6,,Ashish,
OD,Kendujhar,S18,4,,Ashish,
OD,Mayurbhanj,S18,5,,Ashish,
OD,Sundargarh,S18,2,,Ashish,
OD,Bargarh,S18,1,,Ashish,
OD,Dhenkanal,S18,9,,Ashish,
OD,Bolangir,S18,10,,Ashish,
OD,Kalahandi,S18,11,,Ashish,
OD,Kandhamal,S18,13,,Ashish,
OD,Kendrapara,S18,15,,Ashish,
OD,Cuttack,S18,14,,Ashish,
OD,Bhubaneswar,S18,18,,Ashish,
OD,Aska,S18,19,,Ashish,
OD,Jagatsinghpur,S18,16,,Ashish,
OD,Nabarangapur,S18,12,,Ashish,
OD,Koraput,S18,21,,Ashish,
OD,Puri,S18,17,,Ashish,
OD,Berhampur.,S18,20,,Ashish,
PB,Jalandhar,S19,4,,Ashish,
PB,Hoshiarpur,S19,5,,Ashish,
PB,Fatehgarh Sahib,S19,8,,Ashish,
PB,Firozpur,S19,10,,Ashish,
PB,Patiala,S19,13,,Ashish,
PB,Bathinda,S19,11,,Ashish,
PB,Gurdaspur,S19,1,,Ashish,
PB,Amritsar,S19,2,,Ashish,
PB,Khadoor Sahib,S19,3,,Ashish,
PB,Anandpur Sahib,S19,6,,Ashish,
PB,Sangrur,S19,12,,Ashish,
PB,Ludhiana,S19,7,,Ashish,
PB,Faridkot,S19,9,,Ashish,
PY,Puducherry,U07,1,,Ashish,
RJ,Churu,S20,3,,Ashish,
RJ,Bikaner,S20,2,,Ashish,
RJ,Jhunjhunun,S20,4,,Ashish,
RJ,Alwar,S20,8,,Ashish,
RJ,Jodhpur,S20,16,,Ashish,
RJ,Sikar,S20,5,,Ashish,
RJ,Nagaur,S20,14,,Ashish,
RJ,Tonk - Sawai Madhopur,S20,12,,Ashish,
RJ,Bharatpur,S20,9,,Ashish,
RJ,Barmer,S20,17,,Ashish,
RJ,Ajmer,S20,13,,Ashish,
RJ,Karauli - Dhaulpur,S20,10,,Ashish,
RJ,Jhalawar - Baran,S20,25,,Ashish,
RJ,Rajsamand,S20,22,,Ashish,
RJ,Jalore,S20,18,,Ashish,
RJ,Bhilwara,S20,23,,Ashish,
RJ,Kota,S20,24,,Ashish,
RJ,Pali,S20,15,,Ashish,
RJ,Ganganagar,S20,1,,Ashish,
RJ,Dausa,S20,11,,Ashish,
RJ,Chittaurgarh,S20,21,,Ashish,
RJ,Jaipur,S20,7,,Ashish,
RJ,Banswara,S20,20,,Ashish,
RJ,Udaipur,S20,19,,Ashish,
RJ,Jaipur Rural,S20,6,,Ashish,
SK,Sikkim,S21,1,,Ashish,
TN,Erode,S22,17,,Ashish,
TN,Tenkasi,S22,37,,Ashish,
TN,Tirunelveli,S22,38,,Ashish,
TN,Kanniyakumari,S22,39,,Ashish,
TN,Coimbatore,S22,20,,Ashish,
TN,Mayiladuthurai,S22,28,,Ashish,
TN,Perambalur,S22,25,,Ashish,
TN,Dindigul,S22,22,,Ashish,
TN,Arakkonam,S22,7,,Ashish,
TN,Chennai South,S22,3,,Ashish,
TN,Krishnagiri,S22,9,,Ashish,
TN,Arani,S22,12,,Ashish,
TN,Tiruvannamalai,S22,11,,Ashish,
TN,Sriperumbudur,S22,5,,Ashish,
TN,Vellore,S22,8,,Ashish,
TN,Kancheepuram,S22,6,,Ashish,
TN,Kallakurichi,S22,14,,Ashish,
TN,Nilgiris,S22,19,,Ashish,
TN,Chidambaram,S22,27,,Ashish,
TN,Chennai North,S22,2,,Ashish,
TN,Chennai Central,S22,4,,Ashish,
TN,Thoothukkudi,S22,36,,Ashish,
TN,Nagappattinam,S22,29,,Ashish,
TN,Tiruvallur,S22,1,,Ashish,
TN,Viluppuram,S22,13,,Ashish,
TN,Cuddalore,S22,26,,Ashish,
TN,Shivaganga,S22,31,,Ashish,
TN,Theni,S22,33,,Ashish,
TN,Ramanathapuram,S22,35,,Ashish,
TN,Namakkal,S22,16,,Ashish,
TN,Thanjavur,S22,30,,Ashish,
TN,Tiruchirappalli,S22,24,,Ashish,
TN,Pollachi,S22,21,,Ashish,
TN,Karur,S22,23,,Ashish,
TN,Dharmapuri,S22,10,,Ashish,
TN,Madurai,S22,32,,Ashish,
TN,Virudunagar,S22,34,,Ashish,
TN,Tiruppur,S22,18,,Ashish,
TN,Salem,S22,15,,Ashish,
TR,Tripura EaNC,S23,2,,Ashish,
TR,Tripura WeNC,S23,1,,Ashish,
UK,Almora,S28,3,,Ashish,
UK,Hardwar,S28,5,,Ashish,
UK,Tehri Garhwal,S28,1,,Ashish,
UK,Garhwal,S28,2,,Ashish,
UK,Nainital - Udhamsingh Nagar,S28,4,,Ashish,
UP,Saharanpur,S24,1,,Ashish,
UP,Kairana,S24,2,,Ashish,
UP,Nagina,S24,5,,Ashish,
UP,Muzaffarnagar,S24,3,,Ashish,
UP,Baghpat,S24,11,,Ashish,
UP,Amroha,S24,9,,Ashish,
UP,Sambhal,S24,8,,Ashish,
UP,Meerut,S24,10,,Ashish,
UP,Lalganj,S24,68,,Ashish,
UP,Jalaun,S24,45,,Ashish,
UP,Rampur,S24,7,,Ashish,
UP,Ghaziabad,S24,12,,Ashish,
UP,Pilibhit,S24,26,,Ashish,
UP,Bulandshahr,S24,14,,Ashish,
UP,Kheri,S24,28,,Ashish,
UP,Bareilly,S24,25,,Ashish,
UP,Aonla,S24,24,,Ashish,
UP,Budaun,S24,23,,Ashish,
UP,Shahjahanpur,S24,27,,Ashish,
UP,Bahraich,S24,56,,Ashish,
UP,Aligarh,S24,15,,Ashish,
UP,Dhaurahra,S24,29,,Ashish,
UP,Etah,S24,22,,Ashish,
UP,Mathura,S24,17,,Ashish,
UP,Farrukhabad,S24,40,,Ashish,
UP,Hardoi,S24,31,,Ashish,
UP,Hathras,S24,16,,Ashish,
UP,Domriaganj,S24,60,,Ashish,
UP,Sitapur,S24,30,,Ashish,
UP,Firozabad,S24,20,,Ashish,
UP,Maharajganj,S24,63,,Ashish,
UP,Mainpuri,S24,21,,Ashish,
UP,Kaisarganj,S24,57,,Ashish,
UP,Gonda,S24,59,,Ashish,
UP,Misrikh,S24,32,,Ashish,
UP,Barabanki,S24,53,,Ashish,
UP,Kushi Nagar,S24,65,,Ashish,
UP,Fatehpur Sikri,S24,19,,Ashish,
UP,Azamgarh,S24,69,,Ashish,
UP,Bansgaon,S24,67,,Ashish,
UP,Amethi,S24,37,YES,Ashish,
UP,Akbarpur,S24,44,,Ashish,
UP,Rae Bareli,S24,36,,Ashish,
UP,Mohanlalganj,S24,34,,Ashish,
UP,Deoria,S24,66,,Ashish,
UP,Sant Kabir Nagar,S24,62,,Ashish,
UP,Faizabad,S24,54,,Ashish,
UP,Etawah,S24,41,,Ashish,
UP,Sultanpur,S24,38,,Ashish,
UP,Salempur,S24,71,,Ashish,
UP,Ghosi,S24,70,,Ashish,
UP,Chandauli,S24,76,,Ashish,
UP,Allahabad,S24,52,,Ashish,
UP,Mirzapur,S24,79,,Ashish,
UP,Robertsganj,S24,80,,Ashish,
UP,Fatehpur,S24,49,,Ashish,
UP,Jaunpur,S24,73,,Ashish,
UP,Pratapgarh,S24,39,,Ashish,
UP,Hamirpur,S24,47,,Ashish,
UP,Kaushambi,S24,50,,Ashish,
UP,Ballia,S24,72,,Ashish,
UP,Jhansi,S24,46,,Ashish,
UP,Ghazipur,S24,75,,Ashish,
UP,Machhlishahr,S24,74,,Ashish,
UP,Phulpur,S24,51,,Ashish,
UP,Sant Ravi Das Nagar (Bhadohi),S24,78,,Ashish,
UP,Ambedkar Nagar,S24,55,,Ashish,
UP,Banda,S24,48,,Ashish,
UP,Kanpur,S24,43,,Ashish,
UP,Unnao,S24,33,,Ashish,
UP,Kannauj,S24,42,,Ashish,
UP,Lucknow,S24,35,,Ashish,
UP,Varanasi,S24,77,,Ashish,
UP,Gorakhpur,S24,64,,Ashish,
UP,BaNCi,S24,61,,Ashish,
UP,ShrawaNCi,S24,58,,Ashish,
UP,Agra,S24,18,,Ashish,
UP,Gautam Buddha Nagar,S24,13,,Ashish,
UP,Bijnor,S24,4,,Ashish,
UP,Moradabad,S24,6,,Ashish,
WB,Darjiling,S25,4,,Ashish,
WB,Arambag,S25,29,,Ashish,
WB,Barasat,S25,17,,Ashish,
WB,Medinipur,S25,34,,Ashish,
WB,Tamluk,S25,30,,Ashish,
WB,Murshidabad,S25,11,,Ashish,
WB,Krishnanagar,S25,12,,Ashish,
WB,Birbhum,S25,42,,Ashish,
WB,Bolpur,S25,41,,Ashish,
WB,Barddhaman - Durgapur,S25,39,,Ashish,
WB,Puruliya,S25,35,,Ashish,
WB,Barddhaman Purba,S25,38,,Ashish,
WB,Bankura,S25,36,,Ashish,
WB,Asansol,S25,40,,Ashish,
WB,Ranaghat,S25,13,,Ashish,
WB,Bishnupur,S25,37,,Ashish,
WB,Jangipur,S25,9,,Ashish,
WB,Balurghat,S25,6,,Ashish,
WB,Maldah Uttar,S25,7,,Ashish,
WB,Kolkata Uttar,S25,24,,Ashish,
WB,Jhargram,S25,33,,Ashish,
WB,Kolkata Dakshin,S25,23,,Ashish,
WB,Uluberiya,S25,26,,Ashish,
WB,Mathurapur,S25,20,,Ashish,
WB,Jaynagar,S25,19,,Ashish,
WB,Diamond Harbour,S25,21,,Ashish,
WB,Kanthi,S25,31,,Ashish,
WB,Basirhat,S25,18,,Ashish,
WB,Bangaon,S25,14,,Ashish,
WB,Koch Bihar,S25,1,,Ashish,
WB,Alipurduars,S25,2,,Ashish,
WB,Jalpaiguri,S25,3,,Ashish,
WB,Barakpur,S25,15,,Ashish,
WB,Haora,S25,25,,Ashish,
WB,Jadavpur,S25,22,,Ashish,
WB,Hugli,S25,28,,Ashish,
WB,Shrirampur,S25,27,,Ashish,
WB,Baharampur,S25,10,,Ashish,
WB,Maldah Dakshin,S25,8,,Ashish,
WB,Raiganj,S25,5,,Ashish,
WB,Ghatal,S25,32,,Ashish,
WB,Dum Dum,S25,16,,Ashish,
GJ,Kachchh,S06,1,,Ashish,
LD,Lakshadweep,U06,1,,Ashish,